{
  "axes": [],
  "data": [
    {
      "name": "table",
      "values": [
        {
          "col": "data",
          "idx": 0,
          "val": 854
        },
        {
          "col": "data",
          "idx": 1,
          "val": 5217
        }
      ]
    }
  ],
  "height": 500,
  "legends": [
    {
      "fill": "Positive",
      "offset": 0,
      "properties": {},
      "title": "Negative"
    }
  ],
  "marks": [
    {
      "from": {
        "data": "table",
        "transform": [
          {
            "type": "pie",
            "value": "data.val"
          }
        ]
      },
      "properties": {
        "enter": {
          "endAngle": {
            "field": "endAngle"
          },
          "fill": {
            "field": "data.idx",
            "scale": "color"
          },
          "innerRadius": {
            "value": 0
          },
          "outerRadius": {
            "value": 250.0
          },
          "startAngle": {
            "field": "startAngle"
          },
          "stroke": {
            "value": "white"
          },
          "x": {
            "group": "width",
            "mult": 0.5
          },
          "y": {
            "group": "height",
            "mult": 0.5
          }
        }
      },
      "type": "arc"
    }
  ],
  "padding": "auto",
  "scales": [
    {
      "domain": {
        "data": "table",
        "field": "data.idx"
      },
      "name": "color",
      "range": "category10",
      "type": "ordinal"
    }
  ],
  "width": 960
}