{
  "axes": [
    {
      "scale": "x",
      "title": "Time",
      "type": "x"
    },
    {
      "scale": "y",
      "title": "Freq",
      "type": "y"
    }
  ],
  "data": [
    {
      "name": "table",
      "values": [
        {
          "col": "data",
          "idx": 1563864000000,
          "val": 19
        },
        {
          "col": "data",
          "idx": 1563865200000,
          "val": 32
        },
        {
          "col": "data",
          "idx": 1563866400000,
          "val": 42
        },
        {
          "col": "data",
          "idx": 1563867600000,
          "val": 46
        },
        {
          "col": "data",
          "idx": 1563868800000,
          "val": 51
        },
        {
          "col": "data",
          "idx": 1563870000000,
          "val": 43
        },
        {
          "col": "data",
          "idx": 1563871200000,
          "val": 45
        },
        {
          "col": "data",
          "idx": 1563872400000,
          "val": 43
        },
        {
          "col": "data",
          "idx": 1563873600000,
          "val": 49
        },
        {
          "col": "data",
          "idx": 1563874800000,
          "val": 31
        },
        {
          "col": "data",
          "idx": 1563876000000,
          "val": 38
        },
        {
          "col": "data",
          "idx": 1563877200000,
          "val": 23
        },
        {
          "col": "data",
          "idx": 1563878400000,
          "val": 2
        },
        {
          "col": "data",
          "idx": 1563879600000,
          "val": 0
        },
        {
          "col": "data",
          "idx": 1563880800000,
          "val": 0
        },
        {
          "col": "data",
          "idx": 1563882000000,
          "val": 0
        },
        {
          "col": "data",
          "idx": 1563883200000,
          "val": 0
        },
        {
          "col": "data",
          "idx": 1563884400000,
          "val": 0
        },
        {
          "col": "data",
          "idx": 1563885600000,
          "val": 0
        },
        {
          "col": "data",
          "idx": 1563886800000,
          "val": 0
        },
        {
          "col": "data",
          "idx": 1563888000000,
          "val": 0
        },
        {
          "col": "data",
          "idx": 1563889200000,
          "val": 0
        },
        {
          "col": "data",
          "idx": 1563890400000,
          "val": 0
        },
        {
          "col": "data",
          "idx": 1563891600000,
          "val": 0
        },
        {
          "col": "data",
          "idx": 1563892800000,
          "val": 0
        },
        {
          "col": "data",
          "idx": 1563894000000,
          "val": 0
        },
        {
          "col": "data",
          "idx": 1563895200000,
          "val": 0
        },
        {
          "col": "data",
          "idx": 1563896400000,
          "val": 0
        },
        {
          "col": "data",
          "idx": 1563897600000,
          "val": 0
        },
        {
          "col": "data",
          "idx": 1563898800000,
          "val": 0
        },
        {
          "col": "data",
          "idx": 1563900000000,
          "val": 0
        },
        {
          "col": "data",
          "idx": 1563901200000,
          "val": 0
        },
        {
          "col": "data",
          "idx": 1563902400000,
          "val": 0
        },
        {
          "col": "data",
          "idx": 1563903600000,
          "val": 0
        },
        {
          "col": "data",
          "idx": 1563904800000,
          "val": 0
        },
        {
          "col": "data",
          "idx": 1563906000000,
          "val": 0
        },
        {
          "col": "data",
          "idx": 1563907200000,
          "val": 0
        },
        {
          "col": "data",
          "idx": 1563908400000,
          "val": 0
        },
        {
          "col": "data",
          "idx": 1563909600000,
          "val": 0
        },
        {
          "col": "data",
          "idx": 1563910800000,
          "val": 0
        },
        {
          "col": "data",
          "idx": 1563912000000,
          "val": 0
        },
        {
          "col": "data",
          "idx": 1563913200000,
          "val": 0
        },
        {
          "col": "data",
          "idx": 1563914400000,
          "val": 0
        },
        {
          "col": "data",
          "idx": 1563915600000,
          "val": 0
        },
        {
          "col": "data",
          "idx": 1563916800000,
          "val": 0
        },
        {
          "col": "data",
          "idx": 1563918000000,
          "val": 0
        },
        {
          "col": "data",
          "idx": 1563919200000,
          "val": 0
        },
        {
          "col": "data",
          "idx": 1563920400000,
          "val": 0
        },
        {
          "col": "data",
          "idx": 1563921600000,
          "val": 0
        },
        {
          "col": "data",
          "idx": 1563922800000,
          "val": 0
        },
        {
          "col": "data",
          "idx": 1563924000000,
          "val": 0
        },
        {
          "col": "data",
          "idx": 1563925200000,
          "val": 0
        },
        {
          "col": "data",
          "idx": 1563926400000,
          "val": 0
        },
        {
          "col": "data",
          "idx": 1563927600000,
          "val": 0
        },
        {
          "col": "data",
          "idx": 1563928800000,
          "val": 0
        },
        {
          "col": "data",
          "idx": 1563930000000,
          "val": 0
        },
        {
          "col": "data",
          "idx": 1563931200000,
          "val": 0
        },
        {
          "col": "data",
          "idx": 1563932400000,
          "val": 0
        },
        {
          "col": "data",
          "idx": 1563933600000,
          "val": 0
        },
        {
          "col": "data",
          "idx": 1563934800000,
          "val": 0
        },
        {
          "col": "data",
          "idx": 1563936000000,
          "val": 0
        },
        {
          "col": "data",
          "idx": 1563937200000,
          "val": 0
        },
        {
          "col": "data",
          "idx": 1563938400000,
          "val": 0
        },
        {
          "col": "data",
          "idx": 1563939600000,
          "val": 0
        },
        {
          "col": "data",
          "idx": 1563940800000,
          "val": 0
        },
        {
          "col": "data",
          "idx": 1563942000000,
          "val": 0
        },
        {
          "col": "data",
          "idx": 1563943200000,
          "val": 0
        },
        {
          "col": "data",
          "idx": 1563944400000,
          "val": 0
        },
        {
          "col": "data",
          "idx": 1563945600000,
          "val": 0
        },
        {
          "col": "data",
          "idx": 1563946800000,
          "val": 0
        },
        {
          "col": "data",
          "idx": 1563948000000,
          "val": 0
        },
        {
          "col": "data",
          "idx": 1563949200000,
          "val": 0
        },
        {
          "col": "data",
          "idx": 1563950400000,
          "val": 0
        },
        {
          "col": "data",
          "idx": 1563951600000,
          "val": 0
        },
        {
          "col": "data",
          "idx": 1563952800000,
          "val": 0
        },
        {
          "col": "data",
          "idx": 1563954000000,
          "val": 0
        },
        {
          "col": "data",
          "idx": 1563955200000,
          "val": 0
        },
        {
          "col": "data",
          "idx": 1563956400000,
          "val": 0
        },
        {
          "col": "data",
          "idx": 1563957600000,
          "val": 0
        },
        {
          "col": "data",
          "idx": 1563958800000,
          "val": 0
        },
        {
          "col": "data",
          "idx": 1563960000000,
          "val": 0
        },
        {
          "col": "data",
          "idx": 1563961200000,
          "val": 0
        },
        {
          "col": "data",
          "idx": 1563962400000,
          "val": 0
        },
        {
          "col": "data",
          "idx": 1563963600000,
          "val": 0
        },
        {
          "col": "data",
          "idx": 1563964800000,
          "val": 0
        },
        {
          "col": "data",
          "idx": 1563966000000,
          "val": 0
        },
        {
          "col": "data",
          "idx": 1563967200000,
          "val": 0
        },
        {
          "col": "data",
          "idx": 1563968400000,
          "val": 0
        },
        {
          "col": "data",
          "idx": 1563969600000,
          "val": 0
        },
        {
          "col": "data",
          "idx": 1563970800000,
          "val": 0
        },
        {
          "col": "data",
          "idx": 1563972000000,
          "val": 0
        },
        {
          "col": "data",
          "idx": 1563973200000,
          "val": 0
        },
        {
          "col": "data",
          "idx": 1563974400000,
          "val": 0
        },
        {
          "col": "data",
          "idx": 1563975600000,
          "val": 0
        },
        {
          "col": "data",
          "idx": 1563976800000,
          "val": 0
        },
        {
          "col": "data",
          "idx": 1563978000000,
          "val": 0
        },
        {
          "col": "data",
          "idx": 1563979200000,
          "val": 0
        },
        {
          "col": "data",
          "idx": 1563980400000,
          "val": 0
        },
        {
          "col": "data",
          "idx": 1563981600000,
          "val": 0
        },
        {
          "col": "data",
          "idx": 1563982800000,
          "val": 0
        },
        {
          "col": "data",
          "idx": 1563984000000,
          "val": 0
        },
        {
          "col": "data",
          "idx": 1563985200000,
          "val": 0
        },
        {
          "col": "data",
          "idx": 1563986400000,
          "val": 0
        },
        {
          "col": "data",
          "idx": 1563987600000,
          "val": 0
        },
        {
          "col": "data",
          "idx": 1563988800000,
          "val": 0
        },
        {
          "col": "data",
          "idx": 1563990000000,
          "val": 0
        },
        {
          "col": "data",
          "idx": 1563991200000,
          "val": 0
        },
        {
          "col": "data",
          "idx": 1563992400000,
          "val": 0
        },
        {
          "col": "data",
          "idx": 1563993600000,
          "val": 0
        },
        {
          "col": "data",
          "idx": 1563994800000,
          "val": 0
        },
        {
          "col": "data",
          "idx": 1563996000000,
          "val": 0
        },
        {
          "col": "data",
          "idx": 1563997200000,
          "val": 0
        },
        {
          "col": "data",
          "idx": 1563998400000,
          "val": 0
        },
        {
          "col": "data",
          "idx": 1563999600000,
          "val": 0
        },
        {
          "col": "data",
          "idx": 1564000800000,
          "val": 0
        },
        {
          "col": "data",
          "idx": 1564002000000,
          "val": 0
        },
        {
          "col": "data",
          "idx": 1564003200000,
          "val": 0
        },
        {
          "col": "data",
          "idx": 1564004400000,
          "val": 0
        },
        {
          "col": "data",
          "idx": 1564005600000,
          "val": 0
        },
        {
          "col": "data",
          "idx": 1564006800000,
          "val": 0
        },
        {
          "col": "data",
          "idx": 1564008000000,
          "val": 0
        },
        {
          "col": "data",
          "idx": 1564009200000,
          "val": 0
        },
        {
          "col": "data",
          "idx": 1564010400000,
          "val": 0
        },
        {
          "col": "data",
          "idx": 1564011600000,
          "val": 0
        },
        {
          "col": "data",
          "idx": 1564012800000,
          "val": 0
        },
        {
          "col": "data",
          "idx": 1564014000000,
          "val": 0
        },
        {
          "col": "data",
          "idx": 1564015200000,
          "val": 0
        },
        {
          "col": "data",
          "idx": 1564016400000,
          "val": 1
        },
        {
          "col": "data",
          "idx": 1564017600000,
          "val": 5
        },
        {
          "col": "data",
          "idx": 1564018800000,
          "val": 10
        },
        {
          "col": "data",
          "idx": 1564020000000,
          "val": 7
        },
        {
          "col": "data",
          "idx": 1564021200000,
          "val": 13
        },
        {
          "col": "data",
          "idx": 1564022400000,
          "val": 5
        },
        {
          "col": "data",
          "idx": 1564023600000,
          "val": 17
        },
        {
          "col": "data",
          "idx": 1564024800000,
          "val": 19
        },
        {
          "col": "data",
          "idx": 1564026000000,
          "val": 14
        },
        {
          "col": "data",
          "idx": 1564027200000,
          "val": 17
        },
        {
          "col": "data",
          "idx": 1564028400000,
          "val": 17
        },
        {
          "col": "data",
          "idx": 1564029600000,
          "val": 10
        },
        {
          "col": "data",
          "idx": 1564030800000,
          "val": 8
        },
        {
          "col": "data",
          "idx": 1564032000000,
          "val": 9
        },
        {
          "col": "data",
          "idx": 1564033200000,
          "val": 53
        },
        {
          "col": "data",
          "idx": 1564034400000,
          "val": 14
        },
        {
          "col": "data",
          "idx": 1564035600000,
          "val": 10
        },
        {
          "col": "data",
          "idx": 1564036800000,
          "val": 14
        },
        {
          "col": "data",
          "idx": 1564038000000,
          "val": 9
        },
        {
          "col": "data",
          "idx": 1564039200000,
          "val": 8
        },
        {
          "col": "data",
          "idx": 1564040400000,
          "val": 5
        },
        {
          "col": "data",
          "idx": 1564041600000,
          "val": 15
        },
        {
          "col": "data",
          "idx": 1564042800000,
          "val": 4
        }
      ]
    }
  ],
  "height": 500,
  "legends": [],
  "marks": [
    {
      "from": {
        "data": "table",
        "transform": [
          {
            "keys": [
              "data.col"
            ],
            "type": "facet"
          }
        ]
      },
      "marks": [
        {
          "properties": {
            "enter": {
              "stroke": {
                "field": "data.col",
                "scale": "color"
              },
              "strokeWidth": {
                "value": 2
              },
              "x": {
                "field": "data.idx",
                "scale": "x"
              },
              "y": {
                "field": "data.val",
                "scale": "y"
              }
            }
          },
          "type": "line"
        }
      ],
      "type": "group"
    }
  ],
  "padding": "auto",
  "scales": [
    {
      "domain": {
        "data": "table",
        "field": "data.idx"
      },
      "name": "x",
      "range": "width",
      "type": "time"
    },
    {
      "domain": {
        "data": "table",
        "field": "data.val"
      },
      "name": "y",
      "nice": true,
      "range": "height"
    },
    {
      "domain": {
        "data": "table",
        "field": "data.col"
      },
      "name": "color",
      "range": "category20",
      "type": "ordinal"
    }
  ],
  "width": 960
}