{
    "data": [
        {
            "user_id": 26707959,
            "features": {
                "name": "Agus Supriono",
                "id": 26707959,
                "screen_name": "agoessp",
                "tweets": 1,
                "location": "Pancoran, Indonesia",
                "primary_geo": "Pancoran, Indonesia",
                "geo_type": "User location"
            }
        },
        {
            "user_id": 2213461881,
            "features": {
                "name": "K D",
                "id": 2213461881,
                "screen_name": "popicemango",
                "tweets": 1,
                "location": "sundanese ",
                "primary_geo": "sundanese ",
                "geo_type": "User location"
            }
        },
        {
            "user_id": 1066254051275231233,
            "features": {
                "name": "Bangben#01JKW",
                "id": 1066254051275231233,
                "screen_name": "Ht_gurgur16",
                "tweets": 1,
                "location": "Jawa Barat, Indonesia",
                "primary_geo": "Jawa Barat, Indonesia",
                "geo_type": "User location"
            }
        },
        {
            "user_id": 968708303185436672,
            "features": {
                "name": "Kang Agus",
                "id": 968708303185436672,
                "screen_name": "BanserGropet",
                "tweets": 1,
                "location": "Nusantara",
                "primary_geo": "Nusantara",
                "geo_type": "User location"
            }
        },
        {
            "user_id": 347003969,
            "features": {
                "name": "OJAM\u3001\u718a\u3008BEARBULU\u3009\uff08\u00b4(\uff6a)\uff40\uff09",
                "id": 347003969,
                "screen_name": "QMSKN",
                "tweets": 1,
                "location": "\u65e5\u672c\uff3b\u30b2\u30ec\u30c3\u30b7\u30af\uff3d",
                "primary_geo": "\u65e5\u672c\uff3b\u30b2\u30ec\u30c3\u30b7\u30af\uff3d",
                "geo_type": "User location"
            }
        },
        {
            "user_id": 3908639473,
            "features": {
                "name": "GotoTheJek",
                "id": 3908639473,
                "screen_name": "GoTotheJek",
                "tweets": 1,
                "location": "jabodetabek",
                "primary_geo": "jabodetabek",
                "geo_type": "User location"
            }
        },
        {
            "user_id": 189582691,
            "features": {
                "name": "Y. H. Hosea",
                "id": 189582691,
                "screen_name": "yhosea",
                "tweets": 1,
                "location": "Tangerang, Indonesia",
                "primary_geo": "Tangerang, Indonesia",
                "geo_type": "User location"
            }
        },
        {
            "user_id": 897427421439209472,
            "features": {
                "name": "Jon Suwandi",
                "id": 897427421439209472,
                "screen_name": "ZemaInsurgent",
                "tweets": 1,
                "location": "Kebumen, Indonesia",
                "primary_geo": "Kebumen, Indonesia",
                "geo_type": "User location"
            }
        },
        {
            "user_id": 92041231,
            "features": {
                "name": "4\u0159i\u00e8\u00ebn",
                "id": 92041231,
                "screen_name": "arien06",
                "tweets": 1,
                "location": "Indonesia",
                "primary_geo": "Indonesia",
                "geo_type": "User location"
            }
        },
        {
            "user_id": 1126134026429878279,
            "features": {
                "name": "Irr",
                "id": 1126134026429878279,
                "screen_name": "Adeirmasy_",
                "tweets": 1,
                "location": "Indonesia",
                "primary_geo": "Indonesia",
                "geo_type": "User location"
            }
        },
        {
            "user_id": 4834772592,
            "features": {
                "name": "Fadli Hamzah",
                "id": 4834772592,
                "screen_name": "PriaKolorIjo",
                "tweets": 1,
                "location": "Jakarta Timur, DKI Jakarta",
                "primary_geo": "Jakarta Timur, DKI Jakarta",
                "geo_type": "User location"
            }
        },
        {
            "user_id": 907394892350943232,
            "features": {
                "name": "Dede Suryono",
                "id": 907394892350943232,
                "screen_name": "DedeSuryono1926",
                "tweets": 1,
                "location": "DKI Jakarta, Indonesia",
                "primary_geo": "DKI Jakarta, Indonesia",
                "geo_type": "User location"
            }
        },
        {
            "user_id": 139993649,
            "features": {
                "name": "\ud83c\uddee\ud83c\udde9\ud83c\udf9b\ufe0f\ud83c\udfb6\ud83c\udfb8\ud83c\udfbc Jokowi Presiden NKRI \ud83c\udfbc \ud83c\udfb8\ud83c\udfb6\ud83c\udf9b\ufe0f\ud83c\uddee\ud83c\udde9",
                "id": 139993649,
                "screen_name": "wansenk_ajah",
                "tweets": 2,
                "location": "Sumedang, Jawa Barat",
                "primary_geo": "Sumedang, Jawa Barat",
                "geo_type": "User location"
            }
        },
        {
            "user_id": 180710507,
            "features": {
                "name": "yrrejs jerry",
                "id": 180710507,
                "screen_name": "yrrejs",
                "tweets": 1,
                "location": "Earth",
                "primary_geo": "Earth",
                "geo_type": "User location"
            }
        },
        {
            "user_id": 2301503450,
            "features": {
                "name": "amin",
                "id": 2301503450,
                "screen_name": "amin_australia",
                "tweets": 2,
                "location": "Jakarta-Indonesia",
                "primary_geo": "Jakarta-Indonesia",
                "geo_type": "User location"
            }
        },
        {
            "user_id": 2542665199,
            "features": {
                "name": "Aki Tulalit",
                "id": 2542665199,
                "screen_name": "YRadianto",
                "tweets": 1,
                "location": "Indonesia",
                "primary_geo": "Indonesia",
                "geo_type": "User location"
            }
        },
        {
            "user_id": 1000723269937385472,
            "features": {
                "name": "Aristo Mindor Giri",
                "id": 1000723269937385472,
                "screen_name": "giri_aristo",
                "tweets": 1,
                "location": "Denpasar Timur, Indonesia",
                "primary_geo": "Denpasar Timur, Indonesia",
                "geo_type": "User location"
            }
        },
        {
            "user_id": 1106245904556654592,
            "features": {
                "name": "Othenk #69",
                "id": 1106245904556654592,
                "screen_name": "HendroLesmono6",
                "tweets": 1,
                "location": "Kota Surabaya, Jawa Timur",
                "primary_geo": "Kota Surabaya, Jawa Timur",
                "geo_type": "User location"
            }
        },
        {
            "user_id": 813561294,
            "features": {
                "name": "Baro Indra",
                "id": 813561294,
                "screen_name": "Baroindra",
                "tweets": 1,
                "location": "Bandung",
                "primary_geo": "Bandung",
                "geo_type": "User location"
            }
        },
        {
            "user_id": 1117028065320685568,
            "features": {
                "name": "WAHABIS LOKAL",
                "id": 1117028065320685568,
                "screen_name": "WahabisLokal",
                "tweets": 1,
                "location": "Indonesia",
                "primary_geo": "Indonesia",
                "geo_type": "User location"
            }
        },
        {
            "user_id": 1049875473071779841,
            "features": {
                "name": "Cahaya Jannah",
                "id": 1049875473071779841,
                "screen_name": "Cahaya_CintaKuu",
                "tweets": 2,
                "location": "Bandar Lampung, Lampung",
                "primary_geo": "Bandar Lampung, Lampung",
                "geo_type": "User location"
            }
        },
        {
            "user_id": 1907392328,
            "features": {
                "name": "Leader PayTren bali",
                "id": 1907392328,
                "screen_name": "paytrendenpasar",
                "tweets": 1,
                "location": "Nusantara",
                "primary_geo": "Nusantara",
                "geo_type": "User location"
            }
        },
        {
            "user_id": 195673995,
            "features": {
                "name": "syavira",
                "id": 195673995,
                "screen_name": "Nyimassyavira",
                "tweets": 1,
                "location": "Palembang, South Sumatera",
                "primary_geo": "Palembang, South Sumatera",
                "geo_type": "User location"
            }
        },
        {
            "user_id": 341980931,
            "features": {
                "name": "TukangMacuL",
                "id": 341980931,
                "screen_name": "eLganufa",
                "tweets": 1,
                "location": "Tanah Legenda Para-Hyangan",
                "primary_geo": "Tanah Legenda Para-Hyangan",
                "geo_type": "User location"
            }
        },
        {
            "user_id": 914534912,
            "features": {
                "name": "--------",
                "id": 914534912,
                "screen_name": "bilzxc",
                "tweets": 1,
                "location": "Denpasar Selatan, Indonesia",
                "primary_geo": "Denpasar Selatan, Indonesia",
                "geo_type": "User location"
            }
        },
        {
            "user_id": 105695916,
            "features": {
                "name": "Sixth",
                "id": 105695916,
                "screen_name": "4d_h1m",
                "tweets": 1,
                "location": " #LFC Family",
                "primary_geo": " #LFC Family",
                "geo_type": "User location"
            }
        },
        {
            "user_id": 702894641469898752,
            "features": {
                "name": "Sableng tapi bukan Wiro",
                "id": 702894641469898752,
                "screen_name": "GSweeger",
                "tweets": 1,
                "location": "Yogyakarta, Indonesia",
                "primary_geo": "Yogyakarta, Indonesia",
                "geo_type": "User location"
            }
        },
        {
            "user_id": 144902158,
            "features": {
                "name": "Kirman",
                "id": 144902158,
                "screen_name": "ayah678",
                "tweets": 1,
                "location": "Cilacap - Serang, Banten",
                "primary_geo": "Cilacap - Serang, Banten",
                "geo_type": "User location"
            }
        },
        {
            "user_id": 984197112421277696,
            "features": {
                "name": "Aku",
                "id": 984197112421277696,
                "screen_name": "sipandagendut",
                "tweets": 1,
                "location": "East Java, Indonesia",
                "primary_geo": "East Java, Indonesia",
                "geo_type": "User location"
            }
        },
        {
            "user_id": 946706535769522176,
            "features": {
                "name": "Maroes",
                "id": 946706535769522176,
                "screen_name": "_Maroes5",
                "tweets": 1,
                "location": "Mataram",
                "primary_geo": "Mataram",
                "geo_type": "User location"
            }
        },
        {
            "user_id": 1142369590296506370,
            "features": {
                "name": "Alvaro_Tampoe \ud83d\udca6",
                "id": 1142369590296506370,
                "screen_name": "Alvaro_Tampoe",
                "tweets": 1,
                "location": "Indonesia ",
                "primary_geo": "Indonesia ",
                "geo_type": "User location"
            }
        },
        {
            "user_id": 265798909,
            "features": {
                "name": "SugarGlider",
                "id": 265798909,
                "screen_name": "Vannnn22",
                "tweets": 1,
                "location": "Swiss van java  Paris va java",
                "primary_geo": "Swiss van java  Paris va java",
                "geo_type": "User location"
            }
        },
        {
            "user_id": 1138447952127692801,
            "features": {
                "name": "Iftitah",
                "id": 1138447952127692801,
                "screen_name": "Iftitah19380798",
                "tweets": 1,
                "location": "Indonesia",
                "primary_geo": "Indonesia",
                "geo_type": "User location"
            }
        },
        {
            "user_id": 1101220184377835520,
            "features": {
                "name": "mba_Ning",
                "id": 1101220184377835520,
                "screen_name": "sri_huning_2",
                "tweets": 1,
                "location": "Ind\ud83d\udc93nesia",
                "primary_geo": "Ind\ud83d\udc93nesia",
                "geo_type": "User location"
            }
        },
        {
            "user_id": 974476400211079168,
            "features": {
                "name": "Nomicin\ud83d\udcae",
                "id": 974476400211079168,
                "screen_name": "andy_nomicin",
                "tweets": 1,
                "location": "Indonesia",
                "primary_geo": "Indonesia",
                "geo_type": "User location"
            }
        },
        {
            "user_id": 53279987,
            "features": {
                "name": "Mushar",
                "id": 53279987,
                "screen_name": "mush4r",
                "tweets": 1,
                "location": "Pontianak",
                "primary_geo": "Pontianak",
                "geo_type": "User location"
            }
        },
        {
            "user_id": 251653636,
            "features": {
                "name": "Fikri Sadzili",
                "id": 251653636,
                "screen_name": "bokerzili",
                "tweets": 1,
                "location": "DPK BDG",
                "primary_geo": "DPK BDG",
                "geo_type": "User location"
            }
        },
        {
            "user_id": 548526094,
            "features": {
                "name": "Rimba separo",
                "id": 548526094,
                "screen_name": "jamallaoedin",
                "tweets": 1,
                "location": "Selalu berjalan di atas air",
                "primary_geo": "Selalu berjalan di atas air",
                "geo_type": "User location"
            }
        },
        {
            "user_id": 989742524066492417,
            "features": {
                "name": "Syifa Nailufar Rohman",
                "id": 989742524066492417,
                "screen_name": "Syifanailufarro",
                "tweets": 1,
                "location": "Ciputat, Indonesia",
                "primary_geo": "Ciputat, Indonesia",
                "geo_type": "User location"
            }
        },
        {
            "user_id": 2352398952,
            "features": {
                "name": "P4K4M_T03RN1P",
                "id": 2352398952,
                "screen_name": "P4K4M_T03RN1P",
                "tweets": 1,
                "location": "Banten, Indonesia",
                "primary_geo": "Banten, Indonesia",
                "geo_type": "User location"
            }
        },
        {
            "user_id": 1374912236,
            "features": {
                "name": "Dicki Chan Tobing",
                "id": 1374912236,
                "screen_name": "dickylee74",
                "tweets": 1,
                "location": "Kota Dumai",
                "primary_geo": "Kota Dumai",
                "geo_type": "User location"
            }
        },
        {
            "user_id": 1173688224,
            "features": {
                "name": "Erwin Husain",
                "id": 1173688224,
                "screen_name": "husainerwin",
                "tweets": 1,
                "location": "East Palu, Indonesia",
                "primary_geo": "East Palu, Indonesia",
                "geo_type": "User location"
            }
        },
        {
            "user_id": 2354412852,
            "features": {
                "name": "Darwin Leonardo",
                "id": 2354412852,
                "screen_name": "Darwinleonardo_",
                "tweets": 1,
                "location": "In your hearts and minds ",
                "primary_geo": "In your hearts and minds ",
                "geo_type": "User location"
            }
        },
        {
            "user_id": 1155991623982915592,
            "features": {
                "name": "Hoeda aja",
                "id": 1155991623982915592,
                "screen_name": "Maddani8",
                "tweets": 1,
                "location": "Jawa Tengah, Indonesia",
                "primary_geo": "Jawa Tengah, Indonesia",
                "geo_type": "User location"
            }
        },
        {
            "user_id": 1132341988391473154,
            "features": {
                "name": "Erwanto R1TO",
                "id": 1132341988391473154,
                "screen_name": "Erwanto65753282",
                "tweets": 1,
                "location": "Tangerang, Indonesia",
                "primary_geo": "Tangerang, Indonesia",
                "geo_type": "User location"
            }
        },
        {
            "user_id": 1143371959087984640,
            "features": {
                "name": "Lidya Ningsih",
                "id": 1143371959087984640,
                "screen_name": "LidyaNi36557878",
                "tweets": 1,
                "location": "Subang, Indonesia",
                "primary_geo": "Subang, Indonesia",
                "geo_type": "User location"
            }
        },
        {
            "user_id": 3276862908,
            "features": {
                "name": "Zulkarnain Iskarima",
                "id": 3276862908,
                "screen_name": "MasZulkarnain76",
                "tweets": 1,
                "location": "Kota Yogyakarta, Yogyakarta",
                "primary_geo": "Kota Yogyakarta, Yogyakarta",
                "geo_type": "User location"
            }
        },
        {
            "user_id": 140279645,
            "features": {
                "name": "Eriyawan",
                "id": 140279645,
                "screen_name": "erimilis",
                "tweets": 1,
                "location": "Bogor-Bandung-Jakarta",
                "primary_geo": "Bogor-Bandung-Jakarta",
                "geo_type": "User location"
            }
        },
        {
            "user_id": 59710637,
            "features": {
                "name": "thom theo",
                "id": 59710637,
                "screen_name": "toptnt",
                "tweets": 1,
                "location": "JAKARTA",
                "primary_geo": "JAKARTA",
                "geo_type": "User location"
            }
        },
        {
            "user_id": 2285290879,
            "features": {
                "name": "Eka Permana",
                "id": 2285290879,
                "screen_name": "eka76permana",
                "tweets": 1,
                "location": "Cilegon, Indonesia",
                "primary_geo": "Cilegon, Indonesia",
                "geo_type": "User location"
            }
        },
        {
            "user_id": 1107267664659922944,
            "features": {
                "name": "Nasir",
                "id": 1107267664659922944,
                "screen_name": "Nasir82603231",
                "tweets": 1,
                "location": "Waingapu, NTT",
                "primary_geo": "Waingapu, NTT",
                "geo_type": "User location"
            }
        },
        {
            "user_id": 2572203780,
            "features": {
                "name": "aku Jan Ethesmu \u2764",
                "id": 2572203780,
                "screen_name": "bvnnyboy_",
                "tweets": 1,
                "location": "SUB INA",
                "primary_geo": "SUB INA",
                "geo_type": "User location"
            }
        },
        {
            "user_id": 1044834231199965185,
            "features": {
                "name": "FERNANDES YOZZE",
                "id": 1044834231199965185,
                "screen_name": "FYozze",
                "tweets": 1,
                "location": "DKI Jakarta, Indonesia",
                "primary_geo": "DKI Jakarta, Indonesia",
                "geo_type": "User location"
            }
        },
        {
            "user_id": 43563308,
            "features": {
                "name": "Heru Cahyono",
                "id": 43563308,
                "screen_name": "hcahyono",
                "tweets": 1,
                "location": "Kota Surabaya, Jawa Timur",
                "primary_geo": "Kota Surabaya, Jawa Timur",
                "geo_type": "User location"
            }
        },
        {
            "user_id": 2578192062,
            "features": {
                "name": "#tabohita",
                "id": 2578192062,
                "screen_name": "HutapeaPoster",
                "tweets": 1,
                "location": "Jakarta",
                "primary_geo": "Jakarta",
                "geo_type": "User location"
            }
        },
        {
            "user_id": 1709855797,
            "features": {
                "name": "tukang parkir",
                "id": 1709855797,
                "screen_name": "revanheryan08",
                "tweets": 1,
                "location": "Majalengka, Indonesia",
                "primary_geo": "Majalengka, Indonesia",
                "geo_type": "User location"
            }
        },
        {
            "user_id": 232390238,
            "features": {
                "name": "\u03b1\u044f\u03b4\u03b9\u03b1\u03b7\u015f\u03b1\u043d \ud83c\udd74",
                "id": 232390238,
                "screen_name": "4rdn4n",
                "tweets": 1,
                "location": "around you",
                "primary_geo": "around you",
                "geo_type": "User location"
            }
        },
        {
            "user_id": 144464403,
            "features": {
                "name": "Ahmad Furqon",
                "id": 144464403,
                "screen_name": "FoerQoen",
                "tweets": 1,
                "location": "Kendal",
                "primary_geo": "Kendal",
                "geo_type": "User location"
            }
        },
        {
            "user_id": 1345912226,
            "features": {
                "name": "rave",
                "id": 1345912226,
                "screen_name": "ravegbrl",
                "tweets": 1,
                "location": "Yogyakarta, Indonesia",
                "primary_geo": "Yogyakarta, Indonesia",
                "geo_type": "User location"
            }
        },
        {
            "user_id": 1349434237,
            "features": {
                "name": "Allah=Bhinneka DamaiToleran kasihkebaikan seimbang",
                "id": 1349434237,
                "screen_name": "JokSusi2019",
                "tweets": 1,
                "location": "Indonesia",
                "primary_geo": "Indonesia",
                "geo_type": "User location"
            }
        },
        {
            "user_id": 820613606324613120,
            "features": {
                "name": "Pato Branco",
                "id": 820613606324613120,
                "screen_name": "PatoBranco11",
                "tweets": 1,
                "location": "Jakarta Selatan, DKI Jakarta",
                "primary_geo": "Jakarta Selatan, DKI Jakarta",
                "geo_type": "User location"
            }
        },
        {
            "user_id": 172445127,
            "features": {
                "name": "Benni Eka Poetra\ud83c\uddee\ud83c\udde9",
                "id": 172445127,
                "screen_name": "bennyekapoetra1",
                "tweets": 1,
                "location": "Cikarang,Jawa Barat INDONESIA",
                "primary_geo": "Lemahabang, Indonesia, Indonesia",
                "geo_type": "Tweet place"
            }
        },
        {
            "user_id": 1119667544778924032,
            "features": {
                "name": "taaa",
                "id": 1119667544778924032,
                "screen_name": "psycheax",
                "tweets": 1,
                "location": "akunsukasuka\ud83c\udf51",
                "primary_geo": "akunsukasuka\ud83c\udf51",
                "geo_type": "User location"
            }
        },
        {
            "user_id": 818424071440347139,
            "features": {
                "name": "Habib Lembut \ud83d\udc96",
                "id": 818424071440347139,
                "screen_name": "badonci",
                "tweets": 1,
                "location": "Sinaloa, M\u00e9xico",
                "primary_geo": "Sinaloa, M\u00e9xico",
                "geo_type": "User location"
            }
        },
        {
            "user_id": 947050017033936896,
            "features": {
                "name": "AR3K_3DAN_\ud83d\ude4f",
                "id": 947050017033936896,
                "screen_name": "5Y5_one_70",
                "tweets": 1,
                "location": "Kota Surabaya, Jawa Timur",
                "primary_geo": "Kota Surabaya, Jawa Timur",
                "geo_type": "User location"
            }
        },
        {
            "user_id": 36910685,
            "features": {
                "name": "Ind Lest",
                "id": 36910685,
                "screen_name": "indlest",
                "tweets": 1,
                "location": "Bogor",
                "primary_geo": "Bogor",
                "geo_type": "User location"
            }
        },
        {
            "user_id": 347583875,
            "features": {
                "name": "agung afrizal",
                "id": 347583875,
                "screen_name": "agunkafrizal_19",
                "tweets": 1,
                "location": "GERMANY ",
                "primary_geo": "GERMANY ",
                "geo_type": "User location"
            }
        },
        {
            "user_id": 1371458954,
            "features": {
                "name": "`",
                "id": 1371458954,
                "screen_name": "zaienarifin",
                "tweets": 1,
                "location": "South Borneo, Indonesia",
                "primary_geo": "South Borneo, Indonesia",
                "geo_type": "User location"
            }
        },
        {
            "user_id": 262047740,
            "features": {
                "name": "Just Rico",
                "id": 262047740,
                "screen_name": "Ricocoooy",
                "tweets": 1,
                "location": "In my Sims home",
                "primary_geo": "In my Sims home",
                "geo_type": "User location"
            }
        },
        {
            "user_id": 985900986613968901,
            "features": {
                "name": "othex bae",
                "id": 985900986613968901,
                "screen_name": "Msutikno77",
                "tweets": 1,
                "location": "Kota Palembang",
                "primary_geo": "Kota Palembang",
                "geo_type": "User location"
            }
        },
        {
            "user_id": 254846427,
            "features": {
                "name": "Anton & Mercya",
                "id": 254846427,
                "screen_name": "m3rcya_4nton",
                "tweets": 1,
                "location": "tangerang, Indonesia",
                "primary_geo": "tangerang, Indonesia",
                "geo_type": "User location"
            }
        },
        {
            "user_id": 1164214981052600322,
            "features": {
                "name": "Irpan Maulana",
                "id": 1164214981052600322,
                "screen_name": "IrpanMaulana98",
                "tweets": 1,
                "location": "Garut, Indonesia",
                "primary_geo": "Bayongbong, Indonesia, Indonesia",
                "geo_type": "Tweet place"
            }
        },
        {
            "user_id": 954394202963566592,
            "features": {
                "name": "Syamsuddin",
                "id": 954394202963566592,
                "screen_name": "Syamsud41732201",
                "tweets": 1,
                "location": "Klaten, Jawa Tengah",
                "primary_geo": "Klaten, Jawa Tengah",
                "geo_type": "User location"
            }
        },
        {
            "user_id": 586360588,
            "features": {
                "name": "Widyawati putri nur fardiansyah",
                "id": 586360588,
                "screen_name": "widywidyar",
                "tweets": 1,
                "location": "Bogor, Jawa Barat",
                "primary_geo": "Bogor, Jawa Barat",
                "geo_type": "User location"
            }
        },
        {
            "user_id": 740829403,
            "features": {
                "name": "Muhammad Aljufry",
                "id": 740829403,
                "screen_name": "muhammadjufry23",
                "tweets": 1,
                "location": "WorldWide",
                "primary_geo": "WorldWide",
                "geo_type": "User location"
            }
        },
        {
            "user_id": 984383161,
            "features": {
                "name": "yasprinanta",
                "id": 984383161,
                "screen_name": "vemby_",
                "tweets": 1,
                "location": "R\u0422 05 RW\u00ae 03",
                "primary_geo": "R\u0422 05 RW\u00ae 03",
                "geo_type": "User location"
            }
        },
        {
            "user_id": 1096933425812893696,
            "features": {
                "name": "Joice Chrestien Santhi Rumondor",
                "id": 1096933425812893696,
                "screen_name": "JoiceSanthi",
                "tweets": 1,
                "location": "Semarang, Jawa Tengah",
                "primary_geo": "Semarang, Jawa Tengah",
                "geo_type": "User location"
            }
        },
        {
            "user_id": 1041724277160960000,
            "features": {
                "name": "AL 73",
                "id": 1041724277160960000,
                "screen_name": "al7393417",
                "tweets": 1,
                "location": "Indonesia",
                "primary_geo": "Indonesia",
                "geo_type": "User location"
            }
        },
        {
            "user_id": 546006710,
            "features": {
                "name": "DwikyJullian",
                "id": 546006710,
                "screen_name": "Dwiky_jullian",
                "tweets": 1,
                "location": "Bandar Lampung",
                "primary_geo": "Bandar Lampung",
                "geo_type": "User location"
            }
        },
        {
            "user_id": 1086623565489684480,
            "features": {
                "name": "ChuwingGhum",
                "id": 1086623565489684480,
                "screen_name": "cucudwi19",
                "tweets": 1,
                "location": "Jakarta Barat, DKI Jakarta",
                "primary_geo": "Jakarta Barat, DKI Jakarta",
                "geo_type": "User location"
            }
        },
        {
            "user_id": 1100675860141563904,
            "features": {
                "name": "Agos...Agus",
                "id": 1100675860141563904,
                "screen_name": "Agoes85262737",
                "tweets": 1,
                "location": "Yogyakarta, Indonesia",
                "primary_geo": "Yogyakarta, Indonesia",
                "geo_type": "User location"
            }
        },
        {
            "user_id": 1359498410,
            "features": {
                "name": "Budi Setiyanto",
                "id": 1359498410,
                "screen_name": "BudiSetiyanto8",
                "tweets": 1,
                "location": "Indonesia",
                "primary_geo": "Indonesia",
                "geo_type": "User location"
            }
        },
        {
            "user_id": 2235268868,
            "features": {
                "name": "Farid Anwar",
                "id": 2235268868,
                "screen_name": "faridsanwar",
                "tweets": 1,
                "location": "Benculuk,BANYUWANGI",
                "primary_geo": "Benculuk,BANYUWANGI",
                "geo_type": "User location"
            }
        },
        {
            "user_id": 752458108119552000,
            "features": {
                "name": "Roni",
                "id": 752458108119552000,
                "screen_name": "Roniyoas",
                "tweets": 1,
                "location": "Jakarta Selatan, DKI Jakarta",
                "primary_geo": "Jakarta Selatan, DKI Jakarta",
                "geo_type": "User location"
            }
        },
        {
            "user_id": 1164082205473198081,
            "features": {
                "name": "saviraarrobi",
                "id": 1164082205473198081,
                "screen_name": "savirraarrobi",
                "tweets": 1,
                "location": "Serang, Indonesia",
                "primary_geo": "Serang, Indonesia",
                "geo_type": "User location"
            }
        },
        {
            "user_id": 898073195772694528,
            "features": {
                "name": "ARD",
                "id": 898073195772694528,
                "screen_name": "alddika",
                "tweets": 1,
                "location": "Trenggalek, Indonesia",
                "primary_geo": "Trenggalek, Indonesia",
                "geo_type": "User location"
            }
        },
        {
            "user_id": 4479024254,
            "features": {
                "name": "susan | jfb",
                "id": 4479024254,
                "screen_name": "soosunx",
                "tweets": 1,
                "location": "Seoul, korea selatan",
                "primary_geo": "Seoul, korea selatan",
                "geo_type": "User location"
            }
        },
        {
            "user_id": 3231197280,
            "features": {
                "name": "T I R T A",
                "id": 3231197280,
                "screen_name": "tirtamanora_",
                "tweets": 1,
                "location": "Blora, Indonesia",
                "primary_geo": "Blora, Indonesia",
                "geo_type": "User location"
            }
        },
        {
            "user_id": 945666502916694016,
            "features": {
                "name": "yanni",
                "id": 945666502916694016,
                "screen_name": "YJabbaar",
                "tweets": 1,
                "location": "Banten, Indonesia",
                "primary_geo": "Banten, Indonesia",
                "geo_type": "User location"
            }
        },
        {
            "user_id": 1148211522637709312,
            "features": {
                "name": "Rena",
                "id": 1148211522637709312,
                "screen_name": "Renawant1",
                "tweets": 1,
                "location": "Pekanbaru",
                "primary_geo": "Pekanbaru",
                "geo_type": "User location"
            }
        },
        {
            "user_id": 117087001,
            "features": {
                "name": "Hary",
                "id": 117087001,
                "screen_name": "harya165",
                "tweets": 1,
                "location": "Jakarta",
                "primary_geo": "Jakarta",
                "geo_type": "User location"
            }
        },
        {
            "user_id": 69544743,
            "features": {
                "name": "Mufqi M. Gifari",
                "id": 69544743,
                "screen_name": "mufqimoha",
                "tweets": 1,
                "location": "Bandung-Yogyakarta,Indonesia",
                "primary_geo": "Bandung-Yogyakarta,Indonesia",
                "geo_type": "User location"
            }
        },
        {
            "user_id": 707596931292266497,
            "features": {
                "name": "#SomadPenista",
                "id": 707596931292266497,
                "screen_name": "kampoengasri",
                "tweets": 1,
                "location": "Indonesia",
                "primary_geo": "Indonesia",
                "geo_type": "User location"
            }
        },
        {
            "user_id": 963104998723805184,
            "features": {
                "name": "Tejo",
                "id": 963104998723805184,
                "screen_name": "sutejo1705",
                "tweets": 1,
                "location": "Tegal, Jawa Tengah",
                "primary_geo": "Tegal, Jawa Tengah",
                "geo_type": "User location"
            }
        },
        {
            "user_id": 1023166569155710976,
            "features": {
                "name": "RHEA",
                "id": 1023166569155710976,
                "screen_name": "rherhera_",
                "tweets": 1,
                "location": "in your head",
                "primary_geo": "in your head",
                "geo_type": "User location"
            }
        },
        {
            "user_id": 2548423208,
            "features": {
                "name": "Adi",
                "id": 2548423208,
                "screen_name": "fuadi13_",
                "tweets": 1,
                "location": "purworejo, jawa tengah",
                "primary_geo": "purworejo, jawa tengah",
                "geo_type": "User location"
            }
        },
        {
            "user_id": 1039773884478775296,
            "features": {
                "name": "Rindu Ketenangan",
                "id": 1039773884478775296,
                "screen_name": "HendarwatiH",
                "tweets": 1,
                "location": "Kota Malang, Jawa Timur",
                "primary_geo": "Kota Malang, Jawa Timur",
                "geo_type": "User location"
            }
        },
        {
            "user_id": 1121364888247390208,
            "features": {
                "name": "rendang",
                "id": 1121364888247390208,
                "screen_name": "apipahhariri",
                "tweets": 1,
                "location": "Jawa Timur, Indonesia",
                "primary_geo": "Jawa Timur, Indonesia",
                "geo_type": "User location"
            }
        },
        {
            "user_id": 913603941635563521,
            "features": {
                "name": "DBRS",
                "id": 913603941635563521,
                "screen_name": "firadithoqanik",
                "tweets": 1,
                "location": "Jawa Timur, Indonesia",
                "primary_geo": "Jawa Timur, Indonesia",
                "geo_type": "User location"
            }
        },
        {
            "user_id": 564354448,
            "features": {
                "name": "Prilly Latuconsina",
                "id": 564354448,
                "screen_name": "PrillieyBie",
                "tweets": 1,
                "location": "Indonesia",
                "primary_geo": "Indonesia",
                "geo_type": "User location"
            }
        },
        {
            "user_id": 2854662403,
            "features": {
                "name": "abuouo",
                "id": 2854662403,
                "screen_name": "TjahjadiJudono",
                "tweets": 1,
                "location": "DKIJakarta pindah k DIYogya",
                "primary_geo": "DKIJakarta pindah k DIYogya",
                "geo_type": "User location"
            }
        },
        {
            "user_id": 1032992251,
            "features": {
                "name": "Ahmad Ali Buni",
                "id": 1032992251,
                "screen_name": "ahmadalibuni",
                "tweets": 1,
                "location": "Jepara",
                "primary_geo": "Jepara",
                "geo_type": "User location"
            }
        },
        {
            "user_id": 1247843492,
            "features": {
                "name": "Karantina Pertanian",
                "id": 1247843492,
                "screen_name": "Barantan_RI",
                "tweets": 1,
                "location": "Jakarta",
                "primary_geo": "Jakarta",
                "geo_type": "User location"
            }
        },
        {
            "user_id": 1115697384,
            "features": {
                "name": "milet labet",
                "id": 1115697384,
                "screen_name": "lompyah",
                "tweets": 1,
                "location": "lingkungan paido",
                "primary_geo": "lingkungan paido",
                "geo_type": "User location"
            }
        },
        {
            "user_id": 1363284943,
            "features": {
                "name": "Ulfa   ",
                "id": 1363284943,
                "screen_name": "vlfaah",
                "tweets": 1,
                "location": "ambarawa",
                "primary_geo": "ambarawa",
                "geo_type": "User location"
            }
        },
        {
            "user_id": 3227147214,
            "features": {
                "name": "Usep Usman N",
                "id": 3227147214,
                "screen_name": "usepusman83",
                "tweets": 1,
                "location": "Nusa Tenggara Timur, Indonesia",
                "primary_geo": "Nusa Tenggara Timur, Indonesia",
                "geo_type": "User location"
            }
        },
        {
            "user_id": 917192173300342784,
            "features": {
                "name": "Karantina Pertanian Ende",
                "id": 917192173300342784,
                "screen_name": "KarantinaEnde",
                "tweets": 1,
                "location": "Ende, NTT",
                "primary_geo": "Ende, NTT",
                "geo_type": "User location"
            }
        },
        {
            "user_id": 743505426898030592,
            "features": {
                "name": "Jokowi\ud83d\udc4dAmin",
                "id": 743505426898030592,
                "screen_name": "Barna_byo",
                "tweets": 1,
                "location": "Jakarta Raya",
                "primary_geo": "Jakarta Raya",
                "geo_type": "User location"
            }
        },
        {
            "user_id": 306637509,
            "features": {
                "name": "Imas_Margita",
                "id": 306637509,
                "screen_name": "Imas99",
                "tweets": 9,
                "location": "Sidoarjo",
                "primary_geo": "Sidoarjo",
                "geo_type": "User location"
            }
        },
        {
            "user_id": 767512109471047680,
            "features": {
                "name": "feri",
                "id": 767512109471047680,
                "screen_name": "PeriKazekage",
                "tweets": 1,
                "location": "karawang",
                "primary_geo": "karawang",
                "geo_type": "User location"
            }
        },
        {
            "user_id": 1144803860801658882,
            "features": {
                "name": "happygirl",
                "id": 1144803860801658882,
                "screen_name": "aywlnd",
                "tweets": 1,
                "location": "Indonesia",
                "primary_geo": "Indonesia",
                "geo_type": "User location"
            }
        }
    ]
}